Black: JC QC 2D 4C TC  White: 5C 3S 4S 6D 2D
Black: 2H 3D 4S AC 5D  White: 2D 3H 5C 9S KH
Black: 2H 3D 5S 9C KD  White: 2C 3H 4S 8C AH
Black: 2H 4S 4C 2D 4H  White: 2S 8S AS QS 3S
Black: 2H 3D 5S 9C KD  White: 2C 3H 4S 8C

Black: 2H 3D 5S 9C KD  White: 2C 3H 4S 8C KH
Black: JC QC KC AC TC  White: 5C 3S 4S 6D 2D
Black: 5C 3S 4S 6D 2D  White: 5C 3S 4S 6D 2D